^C:\USERS\АДМИНИСТРАТОР\DOCUMENTS\VISUAL STUDIO 2015\PROJECTS\C_PLUS_PLUS\UROK_ALL_10_CHAPTER_3\UROK_ALL\UROK_2\MAIN.CPP|C:\USERS\АДМИНИСТРАТОР\DOCUMENTS\VISUAL STUDIO 2015\PROJECTS\C_PLUS_PLUS\UROK_ALL_10_CHAPTER_3\UROK_ALL\UROK_2\PARALLELOGRAM.CPP
C:\USERS\Администратор\DOCUMENTS\VISUAL STUDIO 2015\PROJECTS\C_PLUS_PLUS\UROK_ALL_10_CHAPTER_3\UROK_ALL\UROK_2\DEBUG\VC140.PDB
C:\USERS\Администратор\DOCUMENTS\VISUAL STUDIO 2015\PROJECTS\C_PLUS_PLUS\UROK_ALL_10_CHAPTER_3\UROK_ALL\UROK_2\DEBUG\VC140.IDB
C:\USERS\Администратор\DOCUMENTS\VISUAL STUDIO 2015\PROJECTS\C_PLUS_PLUS\UROK_ALL_10_CHAPTER_3\UROK_ALL\UROK_2\DEBUG\PARALLELOGRAM.OBJ
^C:\USERS\АДМИНИСТРАТОР\DOCUMENTS\VISUAL STUDIO 2015\PROJECTS\C_PLUS_PLUS\UROK_ALL_10_CHAPTER_3\UROK_ALL\UROK_2\MAIN.CPP
C:\USERS\АДМИНИСТРАТОР\DOCUMENTS\VISUAL STUDIO 2015\PROJECTS\C_PLUS_PLUS\UROK_ALL_10_CHAPTER_3\UROK_ALL\UROK_2\DEBUG\VC140.PDB
C:\USERS\Администратор\DOCUMENTS\VISUAL STUDIO 2015\PROJECTS\C_PLUS_PLUS\UROK_ALL_10_CHAPTER_3\UROK_ALL\UROK_2\DEBUG\VC140.IDB
C:\USERS\Администратор\DOCUMENTS\VISUAL STUDIO 2015\PROJECTS\C_PLUS_PLUS\UROK_ALL_10_CHAPTER_3\UROK_ALL\UROK_2\DEBUG\MAIN.OBJ
^C:\USERS\АДМИНИСТРАТОР\DOCUMENTS\VISUAL STUDIO 2015\PROJECTS\C_PLUS_PLUS\UROK_ALL_10_CHAPTER_3\UROK_ALL\UROK_2\PARALLELOGRAM.CPP
C:\USERS\АДМИНИСТРАТОР\DOCUMENTS\VISUAL STUDIO 2015\PROJECTS\C_PLUS_PLUS\UROK_ALL_10_CHAPTER_3\UROK_ALL\UROK_2\DEBUG\VC140.PDB
C:\USERS\Администратор\DOCUMENTS\VISUAL STUDIO 2015\PROJECTS\C_PLUS_PLUS\UROK_ALL_10_CHAPTER_3\UROK_ALL\UROK_2\DEBUG\VC140.IDB
C:\USERS\Администратор\DOCUMENTS\VISUAL STUDIO 2015\PROJECTS\C_PLUS_PLUS\UROK_ALL_10_CHAPTER_3\UROK_ALL\UROK_2\DEBUG\PARALLELOGRAM.OBJ
