^C:\USERS\АДМИНИСТРАТОР\DOCUMENTS\VISUAL STUDIO 2015\PROJECTS\C_PLUS_PLUS\UROK_ALL_14\UROK_ALL\UROK_ALL\DEBUG\MAIN.OBJ|C:\USERS\АДМИНИСТРАТОР\DOCUMENTS\VISUAL STUDIO 2015\PROJECTS\C_PLUS_PLUS\UROK_ALL_14\UROK_ALL\UROK_ALL\DEBUG\PERSON.OBJ
C:\USERS\Администратор\DOCUMENTS\VISUAL STUDIO 2015\PROJECTS\C_PLUS_PLUS\UROK_ALL_14\UROK_ALL\DEBUG\UROK_ALL.ILK
C:\USERS\Администратор\DOCUMENTS\VISUAL STUDIO 2015\PROJECTS\C_PLUS_PLUS\UROK_ALL_14\UROK_ALL\DEBUG\UROK_ALL.EXE
C:\USERS\АДМИНИСТРАТОР\DOCUMENTS\VISUAL STUDIO 2015\PROJECTS\C_PLUS_PLUS\UROK_ALL_14\UROK_ALL\DEBUG\UROK_ALL.PDB
