^C:\USERS\АДМИНИСТРАТОР\DOCUMENTS\VISUAL STUDIO 2015\PROJECTS\C_PLUS_PLUS\UROK_ALL_13\UROK_ALL\UROK_3\MAIN.CPP|C:\USERS\АДМИНИСТРАТОР\DOCUMENTS\VISUAL STUDIO 2015\PROJECTS\C_PLUS_PLUS\UROK_ALL_13\UROK_ALL\UROK_3\STOCK.CPP
C:\USERS\Администратор\DOCUMENTS\VISUAL STUDIO 2015\PROJECTS\C_PLUS_PLUS\UROK_ALL_13\UROK_ALL\UROK_3\DEBUG\VC140.PDB
C:\USERS\Администратор\DOCUMENTS\VISUAL STUDIO 2015\PROJECTS\C_PLUS_PLUS\UROK_ALL_13\UROK_ALL\UROK_3\DEBUG\VC140.IDB
C:\USERS\Администратор\DOCUMENTS\VISUAL STUDIO 2015\PROJECTS\C_PLUS_PLUS\UROK_ALL_13\UROK_ALL\UROK_3\DEBUG\MAIN.OBJ
C:\USERS\Администратор\DOCUMENTS\VISUAL STUDIO 2015\PROJECTS\C_PLUS_PLUS\UROK_ALL_13\UROK_ALL\UROK_3\DEBUG\STOCK.OBJ
^C:\USERS\АДМИНИСТРАТОР\DOCUMENTS\VISUAL STUDIO 2015\PROJECTS\C_PLUS_PLUS\UROK_ALL_13\UROK_ALL\UROK_3\MAIN.CPP
C:\USERS\АДМИНИСТРАТОР\DOCUMENTS\VISUAL STUDIO 2015\PROJECTS\C_PLUS_PLUS\UROK_ALL_13\UROK_ALL\UROK_3\DEBUG\VC140.PDB
C:\USERS\Администратор\DOCUMENTS\VISUAL STUDIO 2015\PROJECTS\C_PLUS_PLUS\UROK_ALL_13\UROK_ALL\UROK_3\DEBUG\VC140.IDB
C:\USERS\Администратор\DOCUMENTS\VISUAL STUDIO 2015\PROJECTS\C_PLUS_PLUS\UROK_ALL_13\UROK_ALL\UROK_3\DEBUG\MAIN.OBJ
^C:\USERS\АДМИНИСТРАТОР\DOCUMENTS\VISUAL STUDIO 2015\PROJECTS\C_PLUS_PLUS\UROK_ALL_13\UROK_ALL\UROK_3\STOCK.CPP
C:\USERS\АДМИНИСТРАТОР\DOCUMENTS\VISUAL STUDIO 2015\PROJECTS\C_PLUS_PLUS\UROK_ALL_13\UROK_ALL\UROK_3\DEBUG\VC140.PDB
C:\USERS\Администратор\DOCUMENTS\VISUAL STUDIO 2015\PROJECTS\C_PLUS_PLUS\UROK_ALL_13\UROK_ALL\UROK_3\DEBUG\VC140.IDB
C:\USERS\Администратор\DOCUMENTS\VISUAL STUDIO 2015\PROJECTS\C_PLUS_PLUS\UROK_ALL_13\UROK_ALL\UROK_3\DEBUG\STOCK.OBJ
^C:\USERS\АДМИНИСТРАТОР\DOCUMENTS\VISUAL STUDIO 2015\PROJECTS\C_PLUS_PLUS\BUKUNOV\UROK_ALL_15\UROK_15_ALL\UROK_3\MAIN.CPP|C:\USERS\АДМИНИСТРАТОР\DOCUMENTS\VISUAL STUDIO 2015\PROJECTS\C_PLUS_PLUS\BUKUNOV\UROK_ALL_15\UROK_15_ALL\UROK_3\STOCK.CPP
C:\USERS\Администратор\DOCUMENTS\VISUAL STUDIO 2015\PROJECTS\C_PLUS_PLUS\BUKUNOV\UROK_ALL_15\UROK_15_ALL\UROK_3\DEBUG\VC140.PDB
C:\USERS\Администратор\DOCUMENTS\VISUAL STUDIO 2015\PROJECTS\C_PLUS_PLUS\BUKUNOV\UROK_ALL_15\UROK_15_ALL\UROK_3\DEBUG\VC140.IDB
C:\USERS\Администратор\DOCUMENTS\VISUAL STUDIO 2015\PROJECTS\C_PLUS_PLUS\BUKUNOV\UROK_ALL_15\UROK_15_ALL\UROK_3\DEBUG\MAIN.OBJ
C:\USERS\Администратор\DOCUMENTS\VISUAL STUDIO 2015\PROJECTS\C_PLUS_PLUS\BUKUNOV\UROK_ALL_15\UROK_15_ALL\UROK_3\DEBUG\STOCK.OBJ
^C:\USERS\АДМИНИСТРАТОР\DOCUMENTS\VISUAL STUDIO 2015\PROJECTS\C_PLUS_PLUS\BUKUNOV\UROK_ALL_15\UROK_15_ALL\UROK_3\MAIN.CPP
C:\USERS\АДМИНИСТРАТОР\DOCUMENTS\VISUAL STUDIO 2015\PROJECTS\C_PLUS_PLUS\BUKUNOV\UROK_ALL_15\UROK_15_ALL\UROK_3\DEBUG\VC140.PDB
^C:\USERS\АДМИНИСТРАТОР\DOCUMENTS\VISUAL STUDIO 2015\PROJECTS\C_PLUS_PLUS\BUKUNOV\UROK_ALL_15\UROK_15_ALL\UROK_3\STOCK.CPP
C:\USERS\АДМИНИСТРАТОР\DOCUMENTS\VISUAL STUDIO 2015\PROJECTS\C_PLUS_PLUS\BUKUNOV\UROK_ALL_15\UROK_15_ALL\UROK_3\DEBUG\VC140.PDB
