^C:\USERS\АДМИНИСТРАТОР\DOCUMENTS\VISUAL STUDIO 2015\PROJECTS\C_PLUS_PLUS\UROK_11_2_1\UROK_11_2_1\DEBUG\MAIN.OBJ|C:\USERS\АДМИНИСТРАТОР\DOCUMENTS\VISUAL STUDIO 2015\PROJECTS\C_PLUS_PLUS\UROK_11_2_1\UROK_11_2_1\DEBUG\OBIEM.OBJ
C:\USERS\Администратор\DOCUMENTS\VISUAL STUDIO 2015\PROJECTS\C_PLUS_PLUS\UROK_11_2_1\DEBUG\UROK_11_2_1.ILK
C:\USERS\Администратор\DOCUMENTS\VISUAL STUDIO 2015\PROJECTS\C_PLUS_PLUS\UROK_11_2_1\DEBUG\UROK_11_2_1.EXE
C:\USERS\АДМИНИСТРАТОР\DOCUMENTS\VISUAL STUDIO 2015\PROJECTS\C_PLUS_PLUS\UROK_11_2_1\DEBUG\UROK_11_2_1.PDB
^C:\USERS\АДМИНИСТРАТОР\DOCUMENTS\VISUAL STUDIO 2015\PROJECTS\C_PLUS_PLUS\UROK_11_ALL\UROK_11_ALL\UROK_11_2_1\DEBUG\MAIN.OBJ|C:\USERS\АДМИНИСТРАТОР\DOCUMENTS\VISUAL STUDIO 2015\PROJECTS\C_PLUS_PLUS\UROK_11_ALL\UROK_11_ALL\UROK_11_2_1\DEBUG\OBIEM.OBJ
C:\USERS\Администратор\DOCUMENTS\VISUAL STUDIO 2015\PROJECTS\C_PLUS_PLUS\UROK_11_ALL\DEBUG\UROK_11_2_1.ILK
C:\USERS\Администратор\DOCUMENTS\VISUAL STUDIO 2015\PROJECTS\C_PLUS_PLUS\UROK_11_ALL\DEBUG\UROK_11_2_1.EXE
C:\USERS\АДМИНИСТРАТОР\DOCUMENTS\VISUAL STUDIO 2015\PROJECTS\C_PLUS_PLUS\UROK_11_ALL\DEBUG\UROK_11_2_1.PDB
