^C:\USERS\АДМИНИСТРАТОР\DOCUMENTS\VISUAL STUDIO 2015\PROJECTS\C_PLUS_PLUS\UROK_ALL_12\UROK_ALL\UROK_4\DEBUG\CIRCLE.OBJ|C:\USERS\АДМИНИСТРАТОР\DOCUMENTS\VISUAL STUDIO 2015\PROJECTS\C_PLUS_PLUS\UROK_ALL_12\UROK_ALL\UROK_4\DEBUG\MAIN.OBJ
/OUT:"C:\USERS\АДМИНИСТРАТОР\DOCUMENTS\VISUAL STUDIO 2015\PROJECTS\C_PLUS_PLUS\UROK_ALL_12\UROK_ALL\DEBUG\UROK_4.EXE" /INCREMENTAL /NOLOGO KERNEL32.LIB USER32.LIB GDI32.LIB WINSPOOL.LIB COMDLG32.LIB ADVAPI32.LIB SHELL32.LIB OLE32.LIB OLEAUT32.LIB UUID.LIB ODBC32.LIB ODBCCP32.LIB /MANIFEST /MANIFESTUAC:"level='asInvoker' uiAccess='false'" /manifest:embed /DEBUG /PDB:"C:\USERS\АДМИНИСТРАТОР\DOCUMENTS\VISUAL STUDIO 2015\PROJECTS\C_PLUS_PLUS\UROK_ALL_12\UROK_ALL\DEBUG\UROK_4.PDB" /SUBSYSTEM:WINDOWS /TLBID:1 /DYNAMICBASE /NXCOMPAT /IMPLIB:"C:\USERS\АДМИНИСТРАТОР\DOCUMENTS\VISUAL STUDIO 2015\PROJECTS\C_PLUS_PLUS\UROK_ALL_12\UROK_ALL\DEBUG\UROK_4.LIB" /MACHINE:X86 DEBUG\CIRCLE.OBJDEBUG\MAIN.OBJ
^C:\USERS\АДМИНИСТРАТОР\DOCUMENTS\VISUAL STUDIO 2015\PROJECTS\C_PLUS_PLUS\BUKUNOV\UROK_ALL_12\UROK_ALL\UROK_4\DEBUG\CIRCLE.OBJ|C:\USERS\АДМИНИСТРАТОР\DOCUMENTS\VISUAL STUDIO 2015\PROJECTS\C_PLUS_PLUS\BUKUNOV\UROK_ALL_12\UROK_ALL\UROK_4\DEBUG\MAIN.OBJ
/OUT:"C:\USERS\АДМИНИСТРАТОР\DOCUMENTS\VISUAL STUDIO 2015\PROJECTS\C_PLUS_PLUS\BUKUNOV\UROK_ALL_12\UROK_ALL\DEBUG\UROK_4.EXE" /INCREMENTAL /NOLOGO KERNEL32.LIB USER32.LIB GDI32.LIB WINSPOOL.LIB COMDLG32.LIB ADVAPI32.LIB SHELL32.LIB OLE32.LIB OLEAUT32.LIB UUID.LIB ODBC32.LIB ODBCCP32.LIB /MANIFEST /MANIFESTUAC:"level='asInvoker' uiAccess='false'" /manifest:embed /DEBUG /PDB:"C:\USERS\АДМИНИСТРАТОР\DOCUMENTS\VISUAL STUDIO 2015\PROJECTS\C_PLUS_PLUS\BUKUNOV\UROK_ALL_12\UROK_ALL\DEBUG\UROK_4.PDB" /SUBSYSTEM:WINDOWS /TLBID:1 /DYNAMICBASE /NXCOMPAT /IMPLIB:"C:\USERS\АДМИНИСТРАТОР\DOCUMENTS\VISUAL STUDIO 2015\PROJECTS\C_PLUS_PLUS\BUKUNOV\UROK_ALL_12\UROK_ALL\DEBUG\UROK_4.LIB" /MACHINE:X86 DEBUG\CIRCLE.OBJDEBUG\MAIN.OBJ
