^C:\USERS\АДМИНИСТРАТОР\DOCUMENTS\VISUAL STUDIO 2015\PROJECTS\C_PLUS_PLUS\ZACHET\ZACHET\MAIN.CPP
/c /ZI /nologo /W3 /WX- /sdl /Od /Oy- /D _MBCS /Gm /EHsc /RTC1 /MDd /GS /fp:precise /Zc:wchar_t /Zc:forScope /Zc:inline /Fo"DEBUG\\" /Fd"DEBUG\VC140.PDB" /Gd /TP /analyze- C:\USERS\АДМИНИСТРАТОР\DOCUMENTS\VISUAL STUDIO 2015\PROJECTS\C_PLUS_PLUS\ZACHET\ZACHET\MAIN.CPP
^C:\USERS\АДМИНИСТРАТОР\DOCUMENTS\VISUAL STUDIO 2015\PROJECTS\C_PLUS_PLUS\ZACHET\ZACHET\RASPISANIE.CPP
/c /ZI /nologo /W3 /WX- /sdl /Od /Oy- /D _MBCS /Gm /EHsc /RTC1 /MDd /GS /fp:precise /Zc:wchar_t /Zc:forScope /Zc:inline /Fo"DEBUG\\" /Fd"DEBUG\VC140.PDB" /Gd /TP /analyze- C:\USERS\АДМИНИСТРАТОР\DOCUMENTS\VISUAL STUDIO 2015\PROJECTS\C_PLUS_PLUS\ZACHET\ZACHET\RASPISANIE.CPP
