^C:\USERS\АДМИНИСТРАТОР\DOCUMENTS\VISUAL STUDIO 2015\PROJECTS\C_PLUS_PLUS\BUKUNOV\KURSOVAYA_4_KURS_2_SEMESTR\KURSOVAYA_4_KURS_2_SEMESTR\ZADANIE_1\DEBUG\BANK.OBJ|C:\USERS\АДМИНИСТРАТОР\DOCUMENTS\VISUAL STUDIO 2015\PROJECTS\C_PLUS_PLUS\BUKUNOV\KURSOVAYA_4_KURS_2_SEMESTR\KURSOVAYA_4_KURS_2_SEMESTR\ZADANIE_1\DEBUG\MAIN.OBJ
C:\USERS\Администратор\DOCUMENTS\VISUAL STUDIO 2015\PROJECTS\C_PLUS_PLUS\BUKUNOV\KURSOVAYA_4_KURS_2_SEMESTR\KURSOVAYA_4_KURS_2_SEMESTR\DEBUG\ZADANIE_1.ILK
C:\USERS\Администратор\DOCUMENTS\VISUAL STUDIO 2015\PROJECTS\C_PLUS_PLUS\BUKUNOV\KURSOVAYA_4_KURS_2_SEMESTR\KURSOVAYA_4_KURS_2_SEMESTR\DEBUG\ZADANIE_1.EXE
C:\USERS\АДМИНИСТРАТОР\DOCUMENTS\VISUAL STUDIO 2015\PROJECTS\C_PLUS_PLUS\BUKUNOV\KURSOVAYA_4_KURS_2_SEMESTR\KURSOVAYA_4_KURS_2_SEMESTR\DEBUG\ZADANIE_1.PDB
