^C:\USERS\АДМИНИСТРАТОР\DOCUMENTS\VISUAL STUDIO 2015\PROJECTS\C_PLUS_PLUS\UROK_ALL_10_CHAPTER_3\UROK_ALL\UROK_ALL\DEBUG\MAIN.OBJ|C:\USERS\АДМИНИСТРАТОР\DOCUMENTS\VISUAL STUDIO 2015\PROJECTS\C_PLUS_PLUS\UROK_ALL_10_CHAPTER_3\UROK_ALL\UROK_ALL\DEBUG\PARALLELOGRAM.OBJ
C:\USERS\Администратор\DOCUMENTS\VISUAL STUDIO 2015\PROJECTS\C_PLUS_PLUS\UROK_ALL_10_CHAPTER_3\UROK_ALL\DEBUG\UROK_1.ILK
C:\USERS\Администратор\DOCUMENTS\VISUAL STUDIO 2015\PROJECTS\C_PLUS_PLUS\UROK_ALL_10_CHAPTER_3\UROK_ALL\DEBUG\UROK_1.EXE
C:\USERS\АДМИНИСТРАТОР\DOCUMENTS\VISUAL STUDIO 2015\PROJECTS\C_PLUS_PLUS\UROK_ALL_10_CHAPTER_3\UROK_ALL\DEBUG\UROK_1.PDB
