^C:\USERS\АДМИНИСТРАТОР\DOCUMENTS\VISUAL STUDIO 2015\PROJECTS\C_PLUS_PLUS\BUKUNOV\UROK_ALL_23\UROK_23_ALL\UROK_23_3\DEBUG\MAIN.OBJ
C:\USERS\Администратор\DOCUMENTS\VISUAL STUDIO 2015\PROJECTS\C_PLUS_PLUS\BUKUNOV\UROK_ALL_23\UROK_23_ALL\DEBUG\UROK_23_3.ILK
C:\USERS\Администратор\DOCUMENTS\VISUAL STUDIO 2015\PROJECTS\C_PLUS_PLUS\BUKUNOV\UROK_ALL_23\UROK_23_ALL\DEBUG\UROK_23_3.EXE
C:\USERS\АДМИНИСТРАТОР\DOCUMENTS\VISUAL STUDIO 2015\PROJECTS\C_PLUS_PLUS\BUKUNOV\UROK_ALL_23\UROK_23_ALL\DEBUG\UROK_23_3.PDB
