^C:\USERS\АДМИНИСТРАТОР\DOCUMENTS\VISUAL STUDIO 2015\PROJECTS\C_PLUS_PLUS\UROK_11_2_4\UROK_11_2_4\COLORS.CPP|C:\USERS\АДМИНИСТРАТОР\DOCUMENTS\VISUAL STUDIO 2015\PROJECTS\C_PLUS_PLUS\UROK_11_2_4\UROK_11_2_4\MAIN.CPP
C:\USERS\Администратор\DOCUMENTS\VISUAL STUDIO 2015\PROJECTS\C_PLUS_PLUS\UROK_11_2_4\UROK_11_2_4\DEBUG\VC140.PDB
C:\USERS\Администратор\DOCUMENTS\VISUAL STUDIO 2015\PROJECTS\C_PLUS_PLUS\UROK_11_2_4\UROK_11_2_4\DEBUG\VC140.IDB
C:\USERS\Администратор\DOCUMENTS\VISUAL STUDIO 2015\PROJECTS\C_PLUS_PLUS\UROK_11_2_4\UROK_11_2_4\DEBUG\COLORS.OBJ
C:\USERS\Администратор\DOCUMENTS\VISUAL STUDIO 2015\PROJECTS\C_PLUS_PLUS\UROK_11_2_4\UROK_11_2_4\DEBUG\MAIN.OBJ
^C:\USERS\АДМИНИСТРАТОР\DOCUMENTS\VISUAL STUDIO 2015\PROJECTS\C_PLUS_PLUS\UROK_11_2_4\UROK_11_2_4\COLORS.CPP
C:\USERS\АДМИНИСТРАТОР\DOCUMENTS\VISUAL STUDIO 2015\PROJECTS\C_PLUS_PLUS\UROK_11_2_4\UROK_11_2_4\DEBUG\VC140.PDB
C:\USERS\Администратор\DOCUMENTS\VISUAL STUDIO 2015\PROJECTS\C_PLUS_PLUS\UROK_11_2_4\UROK_11_2_4\DEBUG\VC140.IDB
C:\USERS\Администратор\DOCUMENTS\VISUAL STUDIO 2015\PROJECTS\C_PLUS_PLUS\UROK_11_2_4\UROK_11_2_4\DEBUG\COLORS.OBJ
^C:\USERS\АДМИНИСТРАТОР\DOCUMENTS\VISUAL STUDIO 2015\PROJECTS\C_PLUS_PLUS\UROK_11_2_4\UROK_11_2_4\MAIN.CPP
C:\USERS\АДМИНИСТРАТОР\DOCUMENTS\VISUAL STUDIO 2015\PROJECTS\C_PLUS_PLUS\UROK_11_2_4\UROK_11_2_4\DEBUG\VC140.PDB
C:\USERS\Администратор\DOCUMENTS\VISUAL STUDIO 2015\PROJECTS\C_PLUS_PLUS\UROK_11_2_4\UROK_11_2_4\DEBUG\VC140.IDB
C:\USERS\Администратор\DOCUMENTS\VISUAL STUDIO 2015\PROJECTS\C_PLUS_PLUS\UROK_11_2_4\UROK_11_2_4\DEBUG\MAIN.OBJ
^C:\USERS\АДМИНИСТРАТОР\DOCUMENTS\VISUAL STUDIO 2015\PROJECTS\C_PLUS_PLUS\UROK_11_ALL\UROK_11_ALL\UROK_11_2_4\COLORS.CPP|C:\USERS\АДМИНИСТРАТОР\DOCUMENTS\VISUAL STUDIO 2015\PROJECTS\C_PLUS_PLUS\UROK_11_ALL\UROK_11_ALL\UROK_11_2_4\MAIN.CPP
C:\USERS\Администратор\DOCUMENTS\VISUAL STUDIO 2015\PROJECTS\C_PLUS_PLUS\UROK_11_ALL\UROK_11_ALL\UROK_11_2_4\DEBUG\VC140.PDB
C:\USERS\Администратор\DOCUMENTS\VISUAL STUDIO 2015\PROJECTS\C_PLUS_PLUS\UROK_11_ALL\UROK_11_ALL\UROK_11_2_4\DEBUG\VC140.IDB
C:\USERS\Администратор\DOCUMENTS\VISUAL STUDIO 2015\PROJECTS\C_PLUS_PLUS\UROK_11_ALL\UROK_11_ALL\UROK_11_2_4\DEBUG\COLORS.OBJ
C:\USERS\Администратор\DOCUMENTS\VISUAL STUDIO 2015\PROJECTS\C_PLUS_PLUS\UROK_11_ALL\UROK_11_ALL\UROK_11_2_4\DEBUG\MAIN.OBJ
^C:\USERS\АДМИНИСТРАТОР\DOCUMENTS\VISUAL STUDIO 2015\PROJECTS\C_PLUS_PLUS\UROK_11_ALL\UROK_11_ALL\UROK_11_2_4\COLORS.CPP
C:\USERS\АДМИНИСТРАТОР\DOCUMENTS\VISUAL STUDIO 2015\PROJECTS\C_PLUS_PLUS\UROK_11_ALL\UROK_11_ALL\UROK_11_2_4\DEBUG\VC140.PDB
^C:\USERS\АДМИНИСТРАТОР\DOCUMENTS\VISUAL STUDIO 2015\PROJECTS\C_PLUS_PLUS\UROK_11_ALL\UROK_11_ALL\UROK_11_2_4\MAIN.CPP
C:\USERS\АДМИНИСТРАТОР\DOCUMENTS\VISUAL STUDIO 2015\PROJECTS\C_PLUS_PLUS\UROK_11_ALL\UROK_11_ALL\UROK_11_2_4\DEBUG\VC140.PDB
